…
    ## Using ',' as decimal and '.' as grouping mark. Use read_delim() for more control.

    ## Parsed with column specification:
    ## cols(
    ##   date = col_date(format = ""),
    ##   value = col_integer()
    ## )

``` r
sample  
```

    ## # A tibble: 1,020 x 2
    ##    date       value
    ##    <date>     <int>
    ##  1 2016-01-01  1394
    ##  2 2016-01-02  1394
    ##  3 2016-01-03  1394
    ##  4 2016-01-04  1394
    ##  5 2016-01-05  1387
    ##  6 2016-01-06  1387
    ##  7 2016-01-07  1357
    ##  8 2016-01-08  1349
    ##  9 2016-01-09  1349
    ## 10 2016-01-10  1349
    ## # ... with 1,010 more rows
…
